{
	"identifier": "page1",
	"mainEntityOfPage": "WebPage",
	"name": "page1",
	"subjectOf": "cms",
	"ItemList": {
		"itemListElement": [
			{
				"identifier": "DANGER_LOCKMEDOWN",
				"mainEntityOfPage": "GovernmentPermit",
				"Permit": {
					"issuedBy": "page1",
					"issuedThrough": "DANGER_LOCKMEDOWN",
					"permitAudience": "*",
					"validFor": "*"
				}
			},
			{
				"identifier": "LINK2cms",
				"mainEntityOfPage": "EntryPoint",
				"name": "cms",
				"subjectOf": "page1",
				"url": "cms",
				"ItemList": {
					"itemListElement": []
				},
				"EntryPoint": {},
				"Intangible": {}
			}
		],
		"numberOfItems": 2
	},
	"WebPage": {},
	"CreativeWork": {}
}